﻿|SourceProjectName:myVRM User and Administrator Help.hpr
|DestinationProjectName:myVRM_User_and_Administrator_Help.htm
whhost.js
whmsg.js
whmozemu.js
whproxy.js
whstub.js
whutils.js
whver.js
whform.js
whphost.js
whstart.js
whtopic.js
whframes.js
whlang.js
whskin_info.htm
whskin_blank.htm
whskin_pickup.htm
whskin_homepage.htm
whskin_tw.htm
whnjs.htm
whthost.js
whtdhtml.htm
whihost.js
whibody.htm
whiform.htm
whfhost.js
whfbody.htm
whfform.htm
whghost.js
whgbody.htm
whgdhtml.htm
whgdef.htm
whproj.js
whproj.xml
whproj.htm
whxdata\whtoc.xml
whxdata\whidx.xml
whxdata\whfts.xml
whxdata\whglo.xml
whdata\whtoc.js
whdata\whtoc.htm
whdata\whtdata.js
whdata\whidx.js
whdata\whidx.htm
whdata\whidata.js
whdata\whfts.js
whdata\whfts.htm
whdata\whglo.js
whdata\whglo.htm
whdata\whgdata.js
whdata\whftdata.js
whdata\whfwdata.js
whres.xml
WebHelp.jar
WebHelp.cab
whgdata\whnvp30.htm
whgdata\whnvp31.htm
whgdata\whnvp32.htm
whgdata\whnvp33.htm
whgdata\whnvt30.htm
whgdata\whnvt31.htm
whgdata\whnvt32.htm
whgdata\whnvt33.htm
whgdata\whnvf30.htm
whgdata\whnvf31.htm
whgdata\whnvf32.htm
whgdata\whnvf33.htm
whgdata\whnvl31.htm
whgdata\whnvl32.htm
whgdata\whnvl33.htm
whgdata\whexpbar.gif
cshdat_webhelp.htm
whcsh_home.htm
whcshdata.htm
cshdat_robohelp.htm
wht_tab0.gif
wht_tab1.gif
wht_tab2.gif
wht_tab3.gif
wht_tab4.gif
wht_tab5.gif
wht_tab6.gif
wht_tab7.gif
wht_tab8.gif
wht_glo_h.gif
wht_glo_n.gif
wht_fts_h.gif
wht_fts_n.gif
wht_idx_h.gif
wht_idx_n.gif
wht_toc_h.gif
wht_toc_n.gif
wht_ws.gif
wht_ws_g.gif
wht_logo1.gif
wht_logo2.gif
wht_abgw.jpg
wht_abgi.jpg
wht_abge.jpg
wht_abtw.jpg
wht_abte.jpg
wht_abti.jpg
wht_spac.gif
wht_next.gif
wht_next_g.gif
wht_prev.gif
wht_prev_g.gif
wht_sync.gif
wht_hide.gif
wht_go.gif
whstart.ico
whestart.ico
whrstart.ico
whidhtml.htm
whfdhtml.htm
whskin_banner.htm
whtbar.js
om_backgr.gif
om_co_on.gif
om_co_out.gif
om_in_on.gif
om_in_out.gif
om_se_on.gif
om_se_out.gif
om_gl_on.gif
om_gl_out.gif
om_search.gif
om_prev_out.gif
om_prev_on.gif
om_next_out.gif
om_next_on.gif
om_sync.gif
om_hide.gif
om_world.gif
om_book_cl.gif
om_book_op.gif
om_topic.gif
whskin_pdhtml.htm
whskin_papplet.htm
whskin_plist.htm
whskin_tbars.htm
whskin_mbars.htm
whskin_frmset010.htm
whst_topics.xml
whskin_frmset01.htm
myVRM_User_and_Administrator_Help_hha.hhk
myVRM_User_and_Administrator_Help.hhc
myVRM_User_and_Administrator_Help.hhk
Access_Matrices.htm
Active_Users.htm
Additional_Comments.htm
Audio_and_Videoconferencing_Hardware.htm
Audio_Video_Settings.htm
Audio_Visual.htm
Audio_Visual_Work_Orders.htm
Basic_Configuration.htm
Bulk_Tool.htm
Calendar.htm
Caterer.htm
Catering_Menus.htm
Catering_Work_Orders.htm
Common_Component_Calendar.htm
Common_Component_Manage_Conference.htm
Common_Component_My_Groups.htm
Common_Component_myVRM_Address_Book.htm
Common_Component_Recurrence.htm
Common_Component_Room_Profile.htm
Common_Components.htm
Common_Requirements_for_All_Configurations.htm
Conference_Reports.htm
Create_Conference_Workflow.htm
Create_New_Conference_Conference_Details.htm
Create_New_MCU.htm
Customer_Support.htm
Departments.htm
Email_and_Calendars.htm
Endpoints.htm
Enterprise_Configuration.htm
Event_Logs.htm
Guests.htm
Hardware.htm
Hardware1.htm
Housekeeping.htm
Housekeeping_Groups.htm
Housekeeping_Work_Orders.htm
Inactive_Users.htm
Initial_Information.htm
Inventory_Sets.htm
LDAP_Directory_Import.htm
List.htm
Lobby.htm
Locations.htm
Login.htm
Manage_MCUs.htm
MCUs.htm
My_Groups.htm
My_Preferences.htm
My_Templates.htm
myVRM_Menu.htm
myVRM_User_and_Administrator_Help_1.htm
myVRM_User_and_Administrator_Manual_v1_8_3_1_ROBOHELP.htm
Network_Server_Configurations.htm
New_Conference.htm
New_Conference_Overview.htm
Non_role_based.htm
Preview.htm
Reports.htm
Resource_Allocation_by_Department.htm
Role_based.htm
Roles.htm
Room_Reports.htm
Rooms.htm
Search.htm
Select_A_V.htm
Select_Catering.htm
Select_Housekeeping.htm
Select_Participants.htm
Select_Rooms.htm
Site_Options.htm
Site_Settings.htm
Standard_Configuration.htm
Templates.htm
Tiers.htm
Administration.htm
User_Functions.htm
User_Interface_Settings.htm
User_Reports.htm
User_Role_by_Conference_Operation.htm
User_Role_by_Function.htm
Users.htm
Users_and_Resources.htm
Validation_Checks.htm
What_is_myVRM.htm
Work_Order_Calendar.htm
Work_Orders.htm
RoboHHRE.lng
myVRM_User_and_Administrator_Help.glo
myVRM_User_and_Administrator_Manual_v1_8_3_1_ROBOHELP_OUTLINE_April_3_2008.css
RoboHelp_Images\smallLlogo.png
RoboHelp_Images\LOGO3a.png
ehlpdhtm.js
myVRM_User_and_Administrator_Help.ppf
myVRM_User_and_Administrator_Manual_v1_8_3_1_ROBOHELP_OUTLINE_April_3_2008_ns.css
whxdata\whtdata0.xml
whxdata\whidata0.xml
whxdata\whidata1.xml
whxdata\whidata2.xml
whxdata\whftdata0.xml
whxdata\whfwdata0.xml
whxdata\whfwdata1.xml
whxdata\whfwdata2.xml
whxdata\whfwdata3.xml
whxdata\whfwdata4.xml
whxdata\whfwdata5.xml
whxdata\whfwdata6.xml
whxdata\whgdata0.xml
whxdata\whgdata1.xml
whdata\whtdata0.htm
whdata\whidata0.htm
whdata\whidata1.htm
whdata\whidata2.htm
whdata\whftdata0.htm
whdata\whfwdata0.htm
whdata\whfwdata1.htm
whdata\whfwdata2.htm
whdata\whfwdata3.htm
whdata\whfwdata4.htm
whdata\whfwdata5.htm
whdata\whfwdata6.htm
whdata\whgdata0.htm
whdata\whgdata1.htm
whgdata\whlstt0.htm
whgdata\whlstt1.htm
whgdata\whlstt2.htm
whgdata\whlstt3.htm
whgdata\whlstt4.htm
whgdata\whlstt5.htm
whgdata\whlstt6.htm
whgdata\whlstt7.htm
whgdata\whlstt8.htm
whgdata\whlstt9.htm
whgdata\whlstt10.htm
whgdata\whlstt11.htm
whgdata\whlstt12.htm
whgdata\whlstt13.htm
whgdata\whlstt14.htm
whgdata\whlstt15.htm
whgdata\whlstt16.htm
whgdata\whlstt17.htm
whgdata\whlstt18.htm
whgdata\whlstt19.htm
whgdata\whlstt20.htm
whgdata\whlsti0.htm
whgdata\whlsti1.htm
whgdata\whlstfl0.htm
whgdata\whlstfl1.htm
whgdata\whlstfl2.htm
whgdata\whlstfl3.htm
whgdata\whlstfl4.htm
whgdata\whlstfl5.htm
whgdata\whlstfl6.htm
whgdata\whlstfl7.htm
whgdata\whlstfl8.htm
whgdata\whlstfl9.htm
whgdata\whlstfl10.htm
whgdata\whlstfl11.htm
whgdata\whlstfl12.htm
whgdata\whlstfl13.htm
whgdata\whlstfl14.htm
whgdata\whlstfl15.htm
whgdata\whlstfl16.htm
whgdata\whlstfl17.htm
whgdata\whlstfl18.htm
whgdata\whlstfl19.htm
whgdata\whlstfl20.htm
whgdata\whlstfl21.htm
whgdata\whlstfl22.htm
whgdata\whlstfl23.htm
whgdata\whlstfl24.htm
whgdata\whlstf0.htm
whgdata\whlstf1.htm
whgdata\whlstf2.htm
whgdata\whlstf3.htm
whgdata\whlstf4.htm
whgdata\whlstf5.htm
whgdata\whlstf6.htm
whgdata\whlstf7.htm
whgdata\whlstf8.htm
whgdata\whlstf9.htm
whgdata\whlstf10.htm
whgdata\whlstf11.htm
whgdata\whlstf12.htm
whgdata\whlstf13.htm
whgdata\whlstf14.htm
whgdata\whlstf15.htm
whgdata\whlstf16.htm
whgdata\whlstf17.htm
whgdata\whlstf18.htm
whgdata\whlstg0.htm
myVRM_User_and_Administrator_Help.htm
myVRM_User_and_Administrator_Help_csh.htm
myVRM_User_and_Administrator_Help_rhc.htm
